2024-11-12 05:14:46.035 INFO page_ 1:conftest.py:34: new page opened: [<Page url='about:blank'>]
2024-11-12 05:14:46.040 DEBUG tests_api.utils.logger:logger.py:23: > GET https://dev.agentum.pro/backend/api/deal/kanban?type=sell {'method': 'GET', 'url': 'https://dev.agentum.pro/backend/api/deal/kanban?type=sell', 'params': None, 'headers': {'Authorization': 'Bearer YwQogs0aDUHzYIgAIN88OBaTDiKesDmAdciD9vkz'}}
2024-11-12 05:14:46.041 DEBUG urllib3.connectionpool:connectionpool.py:1048: Starting new HTTPS connection (1): dev.agentum.pro:443
2024-11-12 05:14:47.145 DEBUG urllib3.connectionpool:connectionpool.py:546: https://dev.agentum.pro:443 "GET /backend/api/deal/kanban?type=sell HTTP/1.1" 200 None
2024-11-12 05:14:47.146 DEBUG tests_api.utils.logger:logger.py:27: < 200 https://dev.agentum.pro/backend/api/deal/kanban?type=sell {"data":{"total_count_for_types":{"purchase":136,"sell":1727,"rent":0,"rent_out":4},"columns":{"sell_first_touch":{"total_count":1727,"agent_reward":0,"deals":[{"name":"<bound method Provider.name of <faker.providers.person.en_US.Provider object at 0x7f4f4dd15b10>>","deal":{"id":3835,"type":{"value":"sell","label":"\u041f\u0440\u043e\u0434\u0430\u0436\u0430"},"agent_reward":0},"type":null,"type_description":null,"sub_type":[],"sub_type_description":null,"client":{"phone":"79266853740"},"created_at":"2024-05-07T05:15:10.000000Z"},{"name":"<bound method Provider.name of <faker.providers.person.en_US.Provider object at 0x7f4f4dd35570>>","deal":{"id":3836,"type":{"value":"sell","label":"\u041f\u0440\u043e\u0434\u0430\u0436\u0430"},"agent_reward":0},"type":null,"type_description":null,"sub_type":[],"sub_type_description":null,"client":{"phone":"79336947338"},"created_at":"2024-05-07T05:15:12.000000Z"},{"name":"<bound method Provider.name of <faker.providers.person.en_US.Provider object at 0x7f4f4dd5cb80>>","deal":{"id":3837,"type":{"value":"sell","label":"\u041f\u0440\u043e\u0434\u0430\u0436\u0430"},"agent_reward":0},"type":null,"type_description":null,"sub_type":[],"sub_type_description":null,"client":{"phone":"79021000788"},"created_at":"2024-05-07T05:15:12.000000Z"},{"name":"<bound method Provider.name of <faker.providers.person.en_US.Provider object at 0x7fd9aaecdc00>>","deal":{"id":3894,"type":{"value":"sell","label":"\u041f\u0440\u043e\u0434\u0430\u0436\u0430"},"agent_reward":0},"type":null,"type_description":null,"sub_type":[],"sub_type_description":null,"client":{"phone":"79240604773"},"created_at":"2024-05-11T05:14:39.000000Z"},{"name":"<bound method Provider.name of <faker.providers.person.en_US.Provider object at 0x7fd9aaeed480>>","deal":{"id":3895,"type":{"value":"sell","label":"\u041f\u0440\u043e\u0434\u0430\u0436\u0430"},"agent_reward":0},"type":null,"type_description":null,"sub_type":[],"sub_type_description":null,"client":{"phone":"79522344208"},"created_at":"2024-05-11T05:14:41.000000Z"},{"name":"<bound method Provider.name of <faker.providers.person.en_US.Provider object at 0x7fd9aaf14c70>>","deal":{"id":3896,"type":{"value":"sell","label":"\u041f\u0440\u043e\u0434\u0430\u0436\u0430"},"agent_reward":0},"type":null,"type_description":null,"sub_type":[],"sub_type_description":null,"client":{"phone":"79443141228"},"created_at":"2024-05-11T05:14:41.000000Z"},{"name":"<bound method Provider.name of <faker.providers.person.en_US.Provider object at 0x7fceab329bd0>>","deal":{"id":4659,"type":{"value":"sell","label":"\u041f\u0440\u043e\u0434\u0430\u0436\u0430"},"agent_reward":0},"type":null,"type_description":null,"sub_type":[],"sub_type_description":null,"client":{"phone":"79811391379"},"created_at":"2024-07-01T05:12:42.000000Z"},{"name":"<bound method Provider.name of <faker.providers.person.en_US.Provider object at 0x7fceab349630>>","deal":{"id":4660,"type":{"value":"sell","label":"\u041f\u0440\u043e\u0434\u0430\u0436\u0430"},"agent_reward":0},"type":null,"type_description":null,"sub_type":[],"sub_type_description":null,"client":{"phone":"79510010347"},"created_at":"2024-07-01T05:12:44.000000Z"},{"name":"<bound method Provider.name of <faker.providers.person.en_US.Provider object at 0x7fceab370c40>>","deal":{"id":4661,"type":{"value":"sell","label":"\u041f\u0440\u043e\u0434\u0430\u0436\u0430"},"agent_reward":0},"type":null,"type_description":null,"sub_type":[],"sub_type_description":null,"client":{"phone":"79199648590"},"created_at":"2024-07-01T05:12:44.000000Z"},{"name":"<bound method Provider.name of <faker.providers.person.en_US.Provider object at 0x7fa31cc96020>>","deal":{"id":4810,"type":{"value":"sell","label":"\u041f\u0440\u043e\u0434\u0430\u0436\u0430"},"agent_reward":0},"type":null,"type_description":null,"sub_type":[],"sub_type_description":null,"client":{"phone":"79668208461"},"created_at":"2024-07-03T14:35:59.000000Z"}]},"sell_in_work":{"total_count":0,"agent_reward":0,"deals":[]},"sell_showings":{"total_count":0,"agent_reward":0,"deals":[]},"sell_deposit":{"total_count":0,"agent_reward":0,"deals":[]},"sell_deal":{"total_count":0,"agent_reward":0,"deals":[]}}},"meta":{"current_page":1,"last_page":173,"per_page":10,"total":1727}}
2024-11-12 05:14:47.146 DEBUG tests_api.utils.logger:logger.py:35: curl -X GET -H 'Accept: */*' -H 'Accept-Encoding: gzip, deflate' -H 'Authorization: Bearer YwQogs0aDUHzYIgAIN88OBaTDiKesDmAdciD9vkz' -H 'Connection: keep-alive' -H 'User-Agent: python-requests/2.31.0' 'https://dev.agentum.pro/backend/api/deal/kanban?type=sell'